{
    "contents": [
        {
            "id": 1,
            "title": "리뷰1",
            "author": "김깜깜",
            "imageUrl": "https://cdn.vuetifyjs.com/images/cards/sunshine.jpg",
            "reviewDate": "2020-08-25"
        },
        {
            "id": 2,
            "title": "리뷰2",
            "author": "김깜깜",
            "imageUrl": "https://cdn.vuetifyjs.com/images/cards/sunshine.jpg",
            "reviewDate": "2020-08-24"
        },
        {
            "id": 3,
            "title": "리뷰3",
            "author": "김깜깜",
            "imageUrl": "https://cdn.vuetifyjs.com/images/cards/sunshine.jpg",
            "reviewDate": "2020-08-23"
        },
        {
            "id": 5,
            "title": "리뷰5",
            "author": "김깜깜",
            "imageUrl": "https://cdn.vuetifyjs.com/images/cards/sunshine.jpg",
            "reviewDate": "2020-08-22"
        }
    ],
    "pageable": {
        "sort": {
            "sorted": false,
            "unsorted": true,
            "empty": true
        },
        "offset": 0,
        "pageNumber": 3,
        "pageSize": 12,
        "paged": true,
        "unpaged": false
    },
    "last": false,
    "totalPages": 10,
    "totalElements": 120,
    "size": 12,
    "number": 0,
    "first": true,
    "numberOfElements": 10,
    "sort": {
        "sorted": false,
        "unsorted": true,
        "empty": true
    },
    "empty": false
}