{
    "cupons": [
        {
            "id": 1,
            "cuponName": "쿠폰1",
            "salePrice": 5000,
            "expireDate": "2020-12-31"
        },
        {
            "id": 2,
            "cuponName": "쿠폰2",
            "salePrice": 4000,
            "expireDate": "2020-12-31"
        },
        {
            "id": 3,
            "cuponName": "쿠폰3",
            "salePrice": 3000,
            "expireDate": "2020-12-31"
        },
        {
            "id": 4,
            "cuponName": "new 쿠폰",
            "salePrice": 8000,
            "expireDate": "2020-12-31"
        }
    ],
    "pageable": {
        "sort": {
            "sorted": false,
            "unsorted": true,
            "empty": true
        },
        "offset": 0,
        "pageNumber": 3,
        "pageSize": 12,
        "paged": true,
        "unpaged": false
    },
    "last": false,
    "totalPages": 10,
    "totalElements": 120,
    "size": 12,
    "number": 0,
    "first": true,
    "numberOfElements": 10,
    "sort": {
        "sorted": false,
        "unsorted": true,
        "empty": true
    },
    "empty": false
}