{
    "addresses": [
        {
            "id": 1,
            "address": "경기도 남양주시 신비아파트 12동 34호"
        },
        {
            "id": 2,
            "address": "서울특별시 강남구 강남빌딩 12동 34호"
        },
        {
            "id": 3,
            "address": "새로운 주소"
        }
    ],

    "pageable": {
        "sort": {
            "sorted": false,
            "unsorted": true,
            "empty": true
        },
        "offset": 0,
        "pageNumber": 3,
        "pageSize": 12,
        "paged": true,
        "unpaged": false
    },
    "last": false,
    "totalPages": 10,
    "totalElements": 120,
    "size": 12,
    "number": 0,
    "first": true,
    "numberOfElements": 10,
    "sort": {
        "sorted": false,
        "unsorted": true,
        "empty": true
    },
    "empty": false
}