{
    "contents": [
        {
            "id": 1,
            "productName": "슬랙스 바지",
            "productId" : 1,
            "options": [
                {
                    "option": "26",
                    "count": 1
                }
            ],
            "imageUrl": "https://cdn.vuetifyjs.com/images/cards/sunshine.jpg",
            "totalPrice": 36000
        },
        {
            "id": 2,
            "productName": "오버핏 반팔 티",
            "productId" : 2,
            "options": [
                {
                    "option": "검정",
                    "count": 2
                }
            ],
            "imageUrl": "https://cdn.vuetifyjs.com/images/cards/sunshine.jpg",
            "totalPrice": 40000
        },
        {
            "id": 3,
            "productName": "슬랙스 바지3",
            "productId" : 3,
            "options": [
                {
                    "option": "28",
                    "count": 3
                }
            ],
            "imageUrl": "https://cdn.vuetifyjs.com/images/cards/sunshine.jpg",
            "totalPrice": 33000
        },
        {
            "id": 4,
            "productName": "슬랙스 바지4",
            "productId" : 1,
            "options": [
                {
                    "option": "30",
                    "count": 3
                }
            ],
            "imageUrl": "https://cdn.vuetifyjs.com/images/cards/sunshine.jpg",
            "totalPrice": 40000
        },
        {
            "id": 5,
            "productName": "슬랙스 바지5",
            "productId" : 1,
            "options": [
                {
                    "option": "23",
                    "count": 1
                }
            ],
            "imageUrl": "https://cdn.vuetifyjs.com/images/cards/sunshine.jpg",
            "totalPrice": 30000
        }
    ],
    "pageable": {
        "sort": {
            "sorted": false,
            "unsorted": true,
            "empty": true
        },
        "offset": 0,
        "pageNumber": 3,
        "pageSize": 12,
        "paged": true,
        "unpaged": false
    },
    "last": false,
    "totalPages": 5,
    "totalElements": 120,
    "size": 12,
    "number": 0,
    "first": true,
    "numberOfElements": 10,
    "sort": {
        "sorted": false,
        "unsorted": true,
        "empty": true
    },
    "empty": false
}